^C:\USERS\ICEPARAZIT\SOURCE\REPOS\TANKS\TANKS\MAIN.CPP|C:\USERS\ICEPARAZIT\SOURCE\REPOS\TANKS\TANKS\PLAYER.CPP
C:\USERS\ICEPARAZIT\SOURCE\REPOS\TANKS\TANKS\X64\DEBUG\VC141.PDB
C:\USERS\ICEPARAZIT\SOURCE\REPOS\TANKS\TANKS\X64\DEBUG\VC141.IDB
C:\USERS\ICEPARAZIT\SOURCE\REPOS\TANKS\TANKS\X64\DEBUG\MAIN.OBJ
C:\USERS\ICEPARAZIT\SOURCE\REPOS\TANKS\TANKS\X64\DEBUG\PLAYER.OBJ
^C:\USERS\ICEPARAZIT\SOURCE\REPOS\TANKS\TANKS\PLAYER.CPP|C:\USERS\ICEPARAZIT\SOURCE\REPOS\TANKS\TANKS\SOURCE.CPP
C:\USERS\ICEPARAZIT\SOURCE\REPOS\TANKS\TANKS\X64\DEBUG\VC141.PDB
C:\USERS\ICEPARAZIT\SOURCE\REPOS\TANKS\TANKS\X64\DEBUG\VC141.IDB
C:\USERS\ICEPARAZIT\SOURCE\REPOS\TANKS\TANKS\X64\DEBUG\PLAYER.OBJ
^C:\USERS\ICEPARAZIT\SOURCE\REPOS\TANKS\TANKS\MAIN.CPP
C:\USERS\ICEPARAZIT\SOURCE\REPOS\TANKS\TANKS\X64\DEBUG\VC141.PDB
C:\USERS\ICEPARAZIT\SOURCE\REPOS\TANKS\TANKS\X64\DEBUG\VC141.IDB
C:\USERS\ICEPARAZIT\SOURCE\REPOS\TANKS\TANKS\X64\DEBUG\MAIN.OBJ
^C:\USERS\ICEPARAZIT\SOURCE\REPOS\TANKS\TANKS\PLAYER.CPP
C:\USERS\ICEPARAZIT\SOURCE\REPOS\TANKS\TANKS\X64\DEBUG\VC141.PDB
C:\USERS\ICEPARAZIT\SOURCE\REPOS\TANKS\TANKS\X64\DEBUG\VC141.IDB
C:\USERS\ICEPARAZIT\SOURCE\REPOS\TANKS\TANKS\X64\DEBUG\PLAYER.OBJ
